…
``` r
write_csv(dog_data, "data/dog.csv")
write_csv(notes_df, "data/notes.csv")
```

**Data set Summary**

``` r
 dog_data%>%
   distinct(year,month,day)
```

    ## # A tibble: 356 × 3
    ##    year  month day  
    ##    <chr> <chr> <chr>
    ##  1 2018  08    12   
    ##  2 2018  08    19   
    ##  3 2018  08    22   
    ##  4 2018  08    24   
    ##  5 2018  08    27   
    ##  6 2018  08    29   
    ##  7 2018  08    31   
    ##  8 2018  09    02   
    ##  9 2018  09    03   
    ## 10 2018  09    04   
    ## # … with 346 more rows
…
